Discover and Retrieve CELLxGENE Census Data Sets • CxGcensus
…
Install CxGcensus from GitHub with:

## install.packages("devtools")
devtools::install_github("mtmorgan/CxGcensus")

Example

Load the package

library(CxGcensus)

Discover datasets available in the census

datasets()
#> # A tibble: 562 × 8
#>    soma_joinid collection_id           collection_name collection_doi dataset_id
#>          <int> <chr>                   <chr>           <chr>          <chr>     
#>  1           0 6b701826-37bb-4356-979… Abdominal Whit… <NA>           9d8e5dca-…
#>  2           1 4195ab4c-20bd-4cd3-8b3… A spatially re… <NA>           a6388a6f-…
#>  3           2 4195ab4c-20bd-4cd3-8b3… A spatially re… <NA>           842c6f5d-…
#>  4           3 4195ab4c-20bd-4cd3-8b3… A spatially re… <NA>           74520626-…
#>  5           4 4195ab4c-20bd-4cd3-8b3… A spatially re… <NA>           396a9124-…
#>  6           5 74e10dc4-cbb2-4605-a18… Spatial proteo… 10.1016/j.cel… e84f2780-…
#>  7           6 74e10dc4-cbb2-4605-a18… Spatial proteo… 10.1016/j.cel… dfdf1ae2-…
#>  8           7 74e10dc4-cbb2-4605-a18… Spatial proteo… 10.1016/j.cel… d1cbed97-…
#>  9           8 74e10dc4-cbb2-4605-a18… Spatial proteo… 10.1016/j.cel… b03e4ef8-…
#> 10           9 6d203948-a779-4b69-9b3… Differential c… 10.1016/j.cel… f1f123cc-…
#> # ℹ 552 more rows
#> # ℹ 3 more variables: dataset_title <chr>, dataset_h5ad_path <chr>,
#> #   dataset_total_cell_count <int>
…
Learn about features (genes) in, e.g., homo_sapiens datasets in the census

feature_data("homo_sapiens")
#> # A tibble: 60,664 × 4
#>    soma_joinid feature_id      feature_name  feature_length
#>          <int> <chr>           <chr>                  <int>
#>  1           0 ENSG00000243485 MIR1302-2HG             1021
#>  2           1 ENSG00000237613 FAM138A                 1219
#>  3           2 ENSG00000186092 OR4F5                   2618
#>  4           3 ENSG00000238009 RP11-34P13.7            3726
#>  5           4 ENSG00000239945 RP11-34P13.8            1319
#>  6           5 ENSG00000239906 RP11-34P13.14            323
#>  7           6 ENSG00000241860 RP11-34P13.13           7559
#>  8           7 ENSG00000241599 RP11-34P13.9             457
#>  9           8 ENSG00000286448 AP006222.3               736
#> 10           9 ENSG00000236601 RP4-669L17.2            1095
#> # ℹ 60,654 more rows
…
