Discover census datasets, cells, features, and observations — datasets • CxGcensus
…
feature_data("mus_musculus")
#> # A tibble: 52,392 × 4
#>    soma_joinid feature_id         feature_name  feature_length
#>          <int> <chr>              <chr>                  <int>
#>  1           0 ENSMUSG00000109644 0610005C13Rik           3583
#>  2           1 ENSMUSG00000108652 0610006L08Rik           2128
#>  3           2 ENSMUSG00000007777 0610009B22Rik            998
#>  4           3 ENSMUSG00000086714 0610009E02Rik           1803
#>  5           4 ENSMUSG00000043644 0610009L18Rik            619
#>  6           5 ENSMUSG00000042208 0610010F05Rik           5226
#>  7           6 ENSMUSG00000020831 0610010K14Rik           1896
#>  8           7 ENSMUSG00000089755 0610012D04Rik            531
#>  9           8 ENSMUSG00000107002 0610012G03Rik           1445
#> 10           9 ENSMUSG00000046683 0610025J13Rik           1121
#> # ℹ 52,382 more rows
…
