A. Data Discovery and Retrieval • CxGcensus
…
Discover datasets used to construct the census

datasets()
#> # A tibble: 593 × 8
#>    soma_joinid collection_id           collection_name collection_doi dataset_id
#>          <int> <chr>                   <chr>           <chr>          <chr>     
#>  1           0 e2c257e7-6f79-487c-b81… Spatial multio… 10.1038/s4158… f171db61-…
#>  2           1 e2c257e7-6f79-487c-b81… Spatial multio… 10.1038/s4158… ecf2e08e-…
#>  3           2 e2c257e7-6f79-487c-b81… Spatial multio… 10.1038/s4158… 74cff64f-…
#>  4           3 f7cecffa-00b4-4560-a29… Mapping single… 10.1016/j.cce… 5af90777-…
#>  5           4 3f50314f-bdc9-40c6-8e4… Single-cell se… 10.1016/j.cce… bd65a70f-…
#>  6           5 e5f58829-1a66-40b5-a62… Tabula Sapiens  10.1126/scien… ff45e623-…
#>  7           6 e5f58829-1a66-40b5-a62… Tabula Sapiens  10.1126/scien… f01bdd17-…
#>  8           7 e5f58829-1a66-40b5-a62… Tabula Sapiens  10.1126/scien… e6a11140-…
#>  9           8 e5f58829-1a66-40b5-a62… Tabula Sapiens  10.1126/scien… e5c63d94-…
#> 10           9 e5f58829-1a66-40b5-a62… Tabula Sapiens  10.1126/scien… d8732da6-…
#> # ℹ 583 more rows
#> # ℹ 3 more variables: dataset_title <chr>, dataset_h5ad_path <chr>,
#> #   dataset_total_cell_count <int>
…
Learn about features (genes) in, e.g., homo_sapiens
datasets in the census

feature_data("mus_musculus")
#> # A tibble: 52,392 × 4
#>    soma_joinid feature_id         feature_name feature_length
#>          <int> <chr>              <chr>                 <int>
#>  1           0 ENSMUSG00000051951 Xkr4                   6094
#>  2           1 ENSMUSG00000089699 Gm1992                  250
#>  3           2 ENSMUSG00000102343 Gm37381                1364
#>  4           3 ENSMUSG00000025900 Rp1                   12311
#>  5           4 ENSMUSG00000025902 Sox17                  4772
#>  6           5 ENSMUSG00000104328 Gm37323                2773
#>  7           6 ENSMUSG00000033845 Mrpl15                 8487
#>  8           7 ENSMUSG00000025903 Lypla1                 7145
#>  9           8 ENSMUSG00000104217 Gm37988                 825
#> 10           9 ENSMUSG00000033813 Tcea1                  3017
#> # ℹ 52,382 more rows
…
