B. Dataset Integration • CxGcensus
…
Summarize observations by assay. There are two datasets, one is 10x
Genomics the other Smart-seq2. Each dataset consists of several male and
female donors of various developmental stage.

observations |>
    dplyr::count(dataset_id, assay)
#> # A tibble: 2 × 3
#>   dataset_id                           assay          n
#>   <chr>                                <chr>      <int>
#> 1 4546e757-34d0-4d17-be06-538318925fcd Smart-seq2  2859
#> 2 6202a243-b713-4e12-9ced-c387f8483dea 10x 3' v2   7294
observations |>
    dplyr::count(dataset_id, donor_id, sex, development_stage)
#> # A tibble: 21 × 5
#>    dataset_id                           donor_id sex    development_stage      n
#>    <chr>                                <chr>    <chr>  <chr>              <int>
#>  1 4546e757-34d0-4d17-be06-538318925fcd 18_45_M  male   18 month-old stage   275
#>  2 4546e757-34d0-4d17-be06-538318925fcd 18_46_F  female 18 month-old stage   533
#>  3 4546e757-34d0-4d17-be06-538318925fcd 18_53_M  male   18 month-old stage   372
#>  4 4546e757-34d0-4d17-be06-538318925fcd 24_58_M  male   20 month-old stag…   508
#>  5 4546e757-34d0-4d17-be06-538318925fcd 24_59_M  male   20 month-old stag…   440
#>  6 4546e757-34d0-4d17-be06-538318925fcd 3_11_M   male   3 month-old stage    420
#>  7 4546e757-34d0-4d17-be06-538318925fcd 3_56_F   female 3 month-old stage     82
#>  8 4546e757-34d0-4d17-be06-538318925fcd 3_57_F   female 3 month-old stage     79
#>  9 4546e757-34d0-4d17-be06-538318925fcd 3_9_M    male   3 month-old stage    150
#> 10 6202a243-b713-4e12-9ced-c387f8483dea 1-M-62   male   4 weeks              471
#> # ℹ 11 more rows
…
